Test/ReluTest/vhdl/relu-1-00/vhdl/trace.vcd
$date
  Sat Aug 12 14:14:11 2023
$end
$version
  GHDL v0
$end
$timescale
  1 fs
$end
$scope module standard $end
$upscope $end
$scope module std_logic_1164 $end
$upscope $end
$scope module numeric_std $end
$upscope $end
$scope module textio $end
$upscope $end
$scope module std_logic_textio $end
$upscope $end
$scope module system_types $end
$upscope $end
$scope module custom_types $end
$upscope $end
$scope module csv_util $end
$upscope $end
$scope module relu_tb $end
$var reg 1 ! clock $end
$var reg 1 " stopclock $end
$var reg 1 # reset $end
$var reg 1 $ enable $end
$var reg 1 % valuebus_0_enable $end
$var reg 1 & valuebus_0_lastvalue $end
$var reg 32 ' valuebus_0_value[31:0] $end
$var reg 1 ( valuebus_1_enable $end
$var reg 1 ) valuebus_1_lastvalue $end
$var reg 32 * valuebus_1_value[31:0] $end
$var reg 1 + valuebus_2_enable $end
$var reg 1 , valuebus_2_lastvalue $end
$var reg 32 - valuebus_2_value[31:0] $end
$var reg 1 . valuebus_3_enable $end
$var reg 1 / valuebus_3_lastvalue $end
$var reg 32 0 valuebus_3_value[31:0] $end
$var reg 1 1 valuebus_4_enable $end
$var reg 1 2 valuebus_4_lastvalue $end
$var reg 32 3 valuebus_4_value[31:0] $end
$var reg 1 4 valuebus_5_enable $end
$var reg 1 5 valuebus_5_lastvalue $end
$var reg 32 6 valuebus_5_value[31:0] $end
$scope module uut $end
$var reg 1 7 valuebus_1_enable $end
$var reg 32 8 valuebus_1_value[31:0] $end
$var reg 1 9 valuebus_1_lastvalue $end
$var reg 1 : valuebus_0_enable $end
$var reg 32 ; valuebus_0_value[31:0] $end
$var reg 1 < valuebus_0_lastvalue $end
$var reg 1 = valuebus_3_enable $end
$var reg 32 > valuebus_3_value[31:0] $end
$var reg 1 ? valuebus_3_lastvalue $end
$var reg 1 @ valuebus_2_enable $end
$var reg 32 A valuebus_2_value[31:0] $end
$var reg 1 B valuebus_2_lastvalue $end
$var reg 1 C valuebus_5_enable $end
$var reg 32 D valuebus_5_value[31:0] $end
$var reg 1 E valuebus_5_lastvalue $end
$var reg 1 F valuebus_4_enable $end
$var reg 32 G valuebus_4_value[31:0] $end
$var reg 1 H valuebus_4_lastvalue $end
$var reg 1 I enb $end
$var reg 1 J fin $end
$var reg 1 K rst $end
$var reg 1 L clk $end
$var reg 1 M fin_relucore_0 $end
$var reg 1 N fin_relucore_1 $end
$var reg 1 O fin_relucore_2 $end
$var reg 1 P rdy $end
$scope module relucore_0 $end
$var reg 1 Q input_enable $end
$var reg 32 R input_value[31:0] $end
$var reg 1 S input_lastvalue $end
$var reg 1 T output_enable $end
$var reg 1 U output_lastvalue $end
$var reg 32 V output_value[31:0] $end
$var reg 1 W clk $end
$var reg 1 X rdy $end
$var reg 1 Y fin $end
$var reg 1 Z enb $end
$var reg 1 [ rst $end
$upscope $end
$scope module relucore_1 $end
$var reg 1 \ input_enable $end
$var reg 32 ] input_value[31:0] $end
$var reg 1 ^ input_lastvalue $end
$var reg 1 _ output_enable $end
$var reg 1 ` output_lastvalue $end
$var reg 32 a output_value[31:0] $end
$var reg 1 b clk $end
$var reg 1 c rdy $end
$var reg 1 d fin $end
$var reg 1 e enb $end
$var reg 1 f rst $end
$upscope $end
$scope module relucore_2 $end
$var reg 1 g input_enable $end
$var reg 32 h input_value[31:0] $end
$var reg 1 i input_lastvalue $end
$var reg 1 j output_enable $end
$var reg 1 k output_lastvalue $end
$var reg 32 l output_value[31:0] $end
$var reg 1 m clk $end
$var reg 1 n rdy $end
$var reg 1 o fin $end
$var reg 1 p enb $end
$var reg 1 q rst $end
$upscope $end
$upscope $end
$upscope $end
$enddefinitions $end
#0
1!
0"
1#
0$
0%
0&
b00000000000000000000000000000000 '
U(
U)
bUUUUUUUUUUUUUUUUUUUUUUUUUUUUUUUU *
0+
0,
b00000000000000000000000000000000 -
U.
U/
bUUUUUUUUUUUUUUUUUUUUUUUUUUUUUUUU 0
01
02
b00000000000000000000000000000000 3
U4
U5
bUUUUUUUUUUUUUUUUUUUUUUUUUUUUUUUU 6
U7
bUUUUUUUUUUUUUUUUUUUUUUUUUUUUUUUU 8
U9
0:
b00000000000000000000000000000000 ;
0<
U=
bUUUUUUUUUUUUUUUUUUUUUUUUUUUUUUUU >
U?
0@
b00000000000000000000000000000000 A
0B
UC
bUUUUUUUUUUUUUUUUUUUUUUUUUUUUUUUU D
UE
0F
b00000000000000000000000000000000 G
0H
0I
0J
1K
1L
0M
0N
0O
0P
UQ
bUUUUUUUUUUUUUUUUUUUUUUUUUUUUUUUU R
US
0T
0U
b00000000000000000000000000000000 V
1W
0X
0Y
0Z
1[
U\
bUUUUUUUUUUUUUUUUUUUUUUUUUUUUUUUU ]
U^
0_
0`
b00000000000000000000000000000000 a
1b
0c
0d
0e
1f
Ug
bUUUUUUUUUUUUUUUUUUUUUUUUUUUUUUUU h
Ui
0j
0k
b00000000000000000000000000000000 l
1m
0n
0o
0p
1q
#5000000
0!
0#
1$
0(
0)
b00000000000000000000000000000000 *
0.
0/
b00000000000000000000000000000000 0
04
05
b00000000000000000000000000000000 6
07
b00000000000000000000000000000000 8
09
0=
b00000000000000000000000000000000 >
0?
0C
b00000000000000000000000000000000 D
0E
1I
0K
0L
0Q
b00000000000000000000000000000000 R
0S
0W
1Z
0[
0\
b00000000000000000000000000000000 ]
0^
0b
1e
0f
0g
b00000000000000000000000000000000 h
0i
0m
1p
0q
#10000000
1!
1(
b10111110011111011110011110010000 *
1.
b10111110010111001001100000110110 0
14
b00111110000110111101011100001101 6
17
b10111110011111011110011110010000 8
1=
b10111110010111001001100000110110 >
1C
b00111110000110111101011100001101 D
1J
1L
1M
1N
1O
1P
1Q
b10111110011111011110011110010000 R
1W
1X
1Y
1\
b10111110010111001001100000110110 ]
1b
1c
1d
1g
b00111110000110111101011100001101 h
1m
1n
1o
#15000000
0!
0L
0W
0b
0m
#20000000
1!
1%
1+
11
b00111110000110111101011100001101 3
1:
1@
1F
b00111110000110111101011100001101 G
0J
1L
0M
0N
0O
0P
1T
1W
0X
0Y
1_
1b
0c
0d
1j
b00111110000110111101011100001101 l
1m
0n
0o
#25000000
0!
0L
0W
0b
0m
#30000000
1!
1J
1L
1M
1N
1O
1P
1W
1X
1Y
1b
1c
1d
1m
1n
1o
#35000000
0!
0L
0W
0b
0m
#40000000
1!
0J
1L
0M
0N
0O
0P
1W
0X
0Y
1b
0c
0d
1m
0n
0o
#45000000
0!
0L
0W
0b
0m
#50000000
1!
1J
1L
1M
1N
1O
1P
1W
1X
1Y
1b
1c
1d
1m
1n
1o
#55000000
0!
0L
0W
0b
0m
#60000000
1!
0J
1L
0M
0N
0O
0P
1W
0X
0Y
1b
0c
0d
1m
0n
0o
#65000000
0!
0L
0W
0b
0m
#70000000
1!
1J
1L
1M
1N
1O
1P
1W
1X
1Y
1b
1c
1d
1m
1n
1o
#75000000
0!
0L
0W
0b
0m
#80000000
1!
0J
1L
0M
0N
0O
0P
1W
0X
0Y
1b
0c
0d
1m
0n
0o
#85000000
0!
0L
0W
0b
0m
#90000000
1!
1J
1L
1M
1N
1O
1P
1W
1X
1Y
1b
1c
1d
1m
1n
1o
#95000000
0!
0L
0W
0b
0m
#100000000
1!
0J
1L
0M
0N
0O
0P
1W
0X
0Y
1b
0c
0d
1m
0n
0o
#105000000
0!
0L
0W
0b
0m
#110000000
1!
1J
1L
1M
1N
1O
1P
1W
1X
1Y
1b
1c
1d
1m
1n
1o
#115000000
0!
0L
0W
0b
0m
#120000000
1!
0J
1L
0M
0N
0O
0P
1W
0X
0Y
1b
0c
0d
1m
0n
0o
#125000000
0!
0L
0W
0b
0m
#130000000
1!
1J
1L
1M
1N
1O
1P
1W
1X
1Y
1b
1c
1d
1m
1n
1o
#135000000
0!
0L
0W
0b
0m
#140000000
1!
0J
1L
0M
0N
0O
0P
1W
0X
0Y
1b
0c
0d
1m
0n
0o
#145000000
0!
0L
0W
0b
0m
#150000000
1!
1J
1L
1M
1N
1O
1P
1W
1X
1Y
1b
1c
1d
1m
1n
1o
#155000000
0!
0L
0W
0b
0m
#160000000
1!
0J
1L
0M
0N
0O
0P
1W
0X
0Y
1b
0c
0d
1m
0n
0o
#165000000
0!
0L
0W
0b
0m
#170000000
1!
1J
1L
1M
1N
1O
1P
1W
1X
1Y
1b
1c
1d
1m
1n
1o
#175000000
0!
0L
0W
0b
0m
#180000000
1!
0J
1L
0M
0N
0O
0P
1W
0X
0Y
1b
0c
0d
1m
0n
0o
#185000000
0!
0L
0W
0b
0m
#190000000
1!
1J
1L
1M
1N
1O
1P
1W
1X
1Y
1b
1c
1d
1m
1n
1o
#195000000
0!
0L
0W
0b
0m
#200000000
1!
0J
1L
0M
0N
0O
0P
1W
0X
0Y
1b
0c
0d
1m
0n
0o
#205000000
0!
0L
0W
0b
0m
#210000000
1!
1J
1L
1M
1N
1O
1P
1W
1X
1Y
1b
1c
1d
1m
1n
1o
#215000000
0!
0L
0W
0b
0m
#220000000
1!
0J
1L
0M
0N
0O
0P
1W
0X
0Y
1b
0c
0d
1m
0n
0o
#225000000
0!
0L
0W
0b
0m
#230000000
1!
1J
1L
1M
1N
1O
1P
1W
1X
1Y
1b
1c
1d
1m
1n
1o
#235000000
0!
0L
0W
0b
0m
#240000000
1!
0J
1L
0M
0N
0O
0P
1W
0X
0Y
1b
0c
0d
1m
0n
0o
#245000000
0!
0L
0W
0b
0m
#250000000
1!
1J
1L
1M
1N
1O
1P
1W
1X
1Y
1b
1c
1d
1m
1n
1o
#255000000
0!
0L
0W
0b
0m
#260000000
1!
0J
1L
0M
0N
0O
0P
1W
0X
0Y
1b
0c
0d
1m
0n
0o
#265000000
0!
0L
0W
0b
0m
#270000000
1!
1J
1L
1M
1N
1O
1P
1W
1X
1Y
1b
1c
1d
1m
1n
1o
#275000000
0!
0L
0W
0b
0m
#280000000
1!
0J
1L
0M
0N
0O
0P
1W
0X
0Y
1b
0c
0d
1m
0n
0o
#285000000
0!
0L
0W
0b
0m
#290000000
1!
1J
1L
1M
1N
1O
1P
1W
1X
1Y
1b
1c
1d
1m
1n
1o
#295000000
0!
0L
0W
0b
0m
#300000000
1!
0J
1L
0M
0N
0O
0P
1W
0X
0Y
1b
0c
0d
1m
0n
0o
#305000000
0!
0L
0W
0b
0m
#310000000
1!
1J
1L
1M
1N
1O
1P
1W
1X
1Y
1b
1c
1d
1m
1n
1o
#315000000
0!
0L
0W
0b
0m
#320000000
1!
0J
1L
0M
0N
0O
0P
1W
0X
0Y
1b
0c
0d
1m
0n
0o
#325000000
0!
0L
0W
0b
0m
#330000000
1!
1J
1L
1M
1N
1O
1P
1W
1X
1Y
1b
1c
1d
1m
1n
1o
#335000000
0!
0L
0W
0b
0m
#340000000
1!
0J
1L
0M
0N
0O
0P
1W
0X
0Y
1b
0c
0d
1m
0n
0o
#345000000
0!
0L
0W
0b
0m
#350000000
1!
b10111100100000011110100001011101 *
b00111110101101110100000100100010 0
b00111111011000000110010001100010 6
b10111100100000011110100001011101 8
b00111110101101110100000100100010 >
b00111111011000000110010001100010 D
1J
1L
1M
1N
1O
1P
b10111100100000011110100001011101 R
1W
1X
1Y
b00111110101101110100000100100010 ]
1b
1c
1d
b00111111011000000110010001100010 h
1m
1n
1o
#355000000
0!
0L
0W
0b
0m
#360000000
1!
b10111111000000011000100110101010 *
b00111110101101110100000100100010 -
b00111111010101010011110110100000 0
b00111111011000000110010001100010 3
b00111111000101110011100100101010 6
b10111111000000011000100110101010 8
b00111111010101010011110110100000 >
b00111110101101110100000100100010 A
b00111111000101110011100100101010 D
b00111111011000000110010001100010 G
0J
1L
0M
0N
0O
0P
b10111111000000011000100110101010 R
1W
0X
0Y
b00111111010101010011110110100000 ]
b00111110101101110100000100100010 a
1b
0c
0d
b00111111000101110011100100101010 h
b00111111011000000110010001100010 l
1m
0n
0o
#365000000
0!
0L
0W
0b
0m
#370000000
1!
b10111101110011111110011100111111 *
b00111111010101010011110110100000 -
b00111111101101110100110111111100 0
b00111111000101110011100100101010 3
b00111111101110000000000000111101 6
b10111101110011111110011100111111 8
b00111111101101110100110111111100 >
b00111111010101010011110110100000 A
b00111111101110000000000000111101 D
b00111111000101110011100100101010 G
1J
1L
1M
1N
1O
1P
b10111101110011111110011100111111 R
1W
1X
1Y
b00111111101101110100110111111100 ]
b00111111010101010011110110100000 a
1b
1c
1d
b00111111101110000000000000111101 h
b00111111000101110011100100101010 l
1m
1n
1o
#375000000
0!
0L
0W
0b
0m
#380000000
1!
b10111101110111000111101001000010 *
b00111111101101110100110111111100 -
b01000000000000101101010011010010 0
b00111111101110000000000000111101 3
b00111111111011111001100110110100 6
b10111101110111000111101001000010 8
b01000000000000101101010011010010 >
b00111111101101110100110111111100 A
b00111111111011111001100110110100 D
b00111111101110000000000000111101 G
0J
1L
0M
0N
0O
0P
b10111101110111000111101001000010 R
1W
0X
0Y
b01000000000000101101010011010010 ]
b00111111101101110100110111111100 a
1b
0c
0d
b00111111111011111001100110110100 h
b00111111101110000000000000111101 l
1m
0n
0o
#385000000
0!
0L
0W
0b
0m
#390000000
1!
b10111110101011000001010001000010 *
b01000000000000101101010011010010 -
b01000000000111110101111101100000 0
b00111111111011111001100110110100 3
b00111111111011011010010111101100 6
b10111110101011000001010001000010 8
b01000000000111110101111101100000 >
b01000000000000101101010011010010 A
b00111111111011011010010111101100 D
b00111111111011111001100110110100 G
1J
1L
1M
1N
1O
1P
b10111110101011000001010001000010 R
1W
1X
1Y
b01000000000111110101111101100000 ]
b01000000000000101101010011010010 a
1b
1c
1d
b00111111111011011010010111101100 h
b00111111111011111001100110110100 l
1m
1n
1o
#395000000
0!
0L
0W
0b
0m
#400000000
1!
b10111110100101010010111001100010 *
b01000000000111110101111101100000 -
b01000000000011011101011010001000 0
b00111111111011011010010111101100 3
b00111111110100000000110001011110 6
b10111110100101010010111001100010 8
b01000000000011011101011010001000 >
b01000000000111110101111101100000 A
b00111111110100000000110001011110 D
b00111111111011011010010111101100 G
0J
1L
0M
0N
0O
0P
b10111110100101010010111001100010 R
1W
0X
0Y
b01000000000011011101011010001000 ]
b01000000000111110101111101100000 a
1b
0c
0d
b00111111110100000000110001011110 h
b00111111111011011010010111101100 l
1m
0n
0o
#405000000
0!
0L
0W
0b
0m
#410000000
1!
b00111101010111110111001001111110 *
b01000000000011011101011010001000 -
b00111111110001011011101001100010 0
b00111111110100000000110001011110 3
b00111111110010100001110110111001 6
b00111101010111110111001001111110 8
b00111111110001011011101001100010 >
b01000000000011011101011010001000 A
b00111111110010100001110110111001 D
b00111111110100000000110001011110 G
1J
1L
1M
1N
1O
1P
b00111101010111110111001001111110 R
1W
1X
1Y
b00111111110001011011101001100010 ]
b01000000000011011101011010001000 a
1b
1c
1d
b00111111110010100001110110111001 h
b00111111110100000000110001011110 l
1m
1n
1o
#415000000
0!
0L
0W
0b
0m
#420000000
1!
b00111101010111110111001001111110 '
b10111110010011010010010110001000 *
b00111111110001011011101001100010 -
b00111111000100010011100001111101 0
b00111111110010100001110110111001 3
b00111111001000101100011110001000 6
b10111110010011010010010110001000 8
b00111101010111110111001001111110 ;
b00111111000100010011100001111101 >
b00111111110001011011101001100010 A
b00111111001000101100011110001000 D
b00111111110010100001110110111001 G
0J
1L
0M
0N
0O
0P
b10111110010011010010010110001000 R
b00111101010111110111001001111110 V
1W
0X
0Y
b00111111000100010011100001111101 ]
b00111111110001011011101001100010 a
1b
0c
0d
b00111111001000101100011110001000 h
b00111111110010100001110110111001 l
1m
0n
0o
#425000000
0!
0L
0W
0b
0m
#430000000
1!
b00000000000000000000000000000000 '
b00111101000010111110011111010111 *
b00111111000100010011100001111101 -
b00111101011001001010011000001011 0
b00111111001000101100011110001000 3
b00111111000111110011111111010011 6
b00111101000010111110011111010111 8
b00000000000000000000000000000000 ;
b00111101011001001010011000001011 >
b00111111000100010011100001111101 A
b00111111000111110011111111010011 D
b00111111001000101100011110001000 G
1J
1L
1M
1N
1O
1P
b00111101000010111110011111010111 R
b00000000000000000000000000000000 V
1W
1X
1Y
b00111101011001001010011000001011 ]
b00111111000100010011100001111101 a
1b
1c
1d
b00111111000111110011111111010011 h
b00111111001000101100011110001000 l
1m
1n
1o
#435000000
0!
0L
0W
0b
0m
#440000000
1!
b00111101000010111110011111010111 '
b10111110011111011110011110010000 *
b00111101011001001010011000001011 -
b10111110010111001001100000110110 0
b00111111000111110011111111010011 3
b00111110000110111101011100001101 6
b10111110011111011110011110010000 8
b00111101000010111110011111010111 ;
b10111110010111001001100000110110 >
b00111101011001001010011000001011 A
b00111110000110111101011100001101 D
b00111111000111110011111111010011 G
0J
1L
0M
0N
0O
0P
b10111110011111011110011110010000 R
b00111101000010111110011111010111 V
1W
0X
0Y
b10111110010111001001100000110110 ]
b00111101011001001010011000001011 a
1b
0c
0d
b00111110000110111101011100001101 h
b00111111000111110011111111010011 l
1m
0n
0o
#445000000
0!
0L
0W
0b
0m
#450000000
1!
b00000000000000000000000000000000 '
b00000000000000000000000000000000 -
b00111110000110111101011100001101 3
b00000000000000000000000000000000 ;
b00000000000000000000000000000000 A
b00111110000110111101011100001101 G
1J
1L
1M
1N
1O
1P
b00000000000000000000000000000000 V
1W
1X
1Y
b00000000000000000000000000000000 a
1b
1c
1d
b00111110000110111101011100001101 l
1m
1n
1o
#455000000
0!
0L
0W
0b
0m
#460000000
1!
0J
1L
0M
0N
0O
0P
1W
0X
0Y
1b
0c
0d
1m
0n
0o
#465000000
0!
0L
0W
0b
0m
#470000000
1!
1J
1L
1M
1N
1O
1P
1W
1X
1Y
1b
1c
1d
1m
1n
1o
#475000000
0!
0L
0W
0b
0m
#480000000
1!
0J
1L
0M
0N
0O
0P
1W
0X
0Y
1b
0c
0d
1m
0n
0o
#485000000
0!
0L
0W
0b
0m
#490000000
1!
1J
1L
1M
1N
1O
1P
1W
1X
1Y
1b
1c
1d
1m
1n
1o
#495000000
0!
0L
0W
0b
0m
#500000000
1!
0J
1L
0M
0N
0O
0P
1W
0X
0Y
1b
0c
0d
1m
0n
0o
#505000000
0!
0L
0W
0b
0m
#510000000
1!
1J
1L
1M
1N
1O
1P
1W
1X
1Y
1b
1c
1d
1m
1n
1o
#515000000
0!
0L
0W
0b
0m
#520000000
1!
0J
1L
0M
0N
0O
0P
1W
0X
0Y
1b
0c
0d
1m
0n
0o
#525000000
0!
0L
0W
0b
0m
#530000000
1!
1J
1L
1M
1N
1O
1P
1W
1X
1Y
1b
1c
1d
1m
1n
1o
#535000000
0!
0L
0W
0b
0m
#540000000
1!
0J
1L
0M
0N
0O
0P
1W
0X
0Y
1b
0c
0d
1m
0n
0o
#545000000
0!
0L
0W
0b
0m
#550000000
1!
1J
1L
1M
1N
1O
1P
1W
1X
1Y
1b
1c
1d
1m
1n
1o
#555000000
0!
0L
0W
0b
0m
#560000000
1!
0J
1L
0M
0N
0O
0P
1W
0X
0Y
1b
0c
0d
1m
0n
0o
#565000000
0!
0L
0W
0b
0m
#570000000
1!
1J
1L
1M
1N
1O
1P
1W
1X
1Y
1b
1c
1d
1m
1n
1o
#575000000
0!
0L
0W
0b
0m
#580000000
1!
0J
1L
0M
0N
0O
0P
1W
0X
0Y
1b
0c
0d
1m
0n
0o
#585000000
0!
0L
0W
0b
0m
#590000000
1!
1J
1L
1M
1N
1O
1P
1W
1X
1Y
1b
1c
1d
1m
1n
1o
#595000000
0!
0L
0W
0b
0m
#600000000
1!
b00111101101110001011001101100001 *
b00111111000111101011000001001001 0
b00111111100110101000111011000101 6
b00111101101110001011001101100001 8
b00111111000111101011000001001001 >
b00111111100110101000111011000101 D
0J
1L
0M
0N
0O
0P
b00111101101110001011001101100001 R
1W
0X
0Y
b00111111000111101011000001001001 ]
1b
0c
0d
b00111111100110101000111011000101 h
1m
0n
0o
#605000000
0!
0L
0W
0b
0m
#610000000
1!
b00111101101110001011001101100001 '
b00111110101111100000110111110011 *
b00111111000111101011000001001001 -
b01000000000000001111110100011101 0
b00111111100110101000111011000101 3
b00111110111010100011111000101000 6
b00111110101111100000110111110011 8
b00111101101110001011001101100001 ;
b01000000000000001111110100011101 >
b00111111000111101011000001001001 A
b00111110111010100011111000101000 D
b00111111100110101000111011000101 G
1J
1L
1M
1N
1O
1P
b00111110101111100000110111110011 R
b00111101101110001011001101100001 V
1W
1X
1Y
b01000000000000001111110100011101 ]
b00111111000111101011000001001001 a
1b
1c
1d
b00111110111010100011111000101000 h
b00111111100110101000111011000101 l
1m
1n
1o
#615000000
0!
0L
0W
0b
0m
#620000000
1!
b00111110101111100000110111110011 '
b00111111101010111000100111011011 *
b01000000000000001111110100011101 -
b01000000011000011110000010110000 0
b00111110111010100011111000101000 3
b10111110100000001010101011100110 6
b00111111101010111000100111011011 8
b00111110101111100000110111110011 ;
b01000000011000011110000010110000 >
b01000000000000001111110100011101 A
b10111110100000001010101011100110 D
b00111110111010100011111000101000 G
0J
1L
0M
0N
0O
0P
b00111111101010111000100111011011 R
b00111110101111100000110111110011 V
1W
0X
0Y
b01000000011000011110000010110000 ]
b01000000000000001111110100011101 a
1b
0c
0d
b10111110100000001010101011100110 h
b00111110111010100011111000101000 l
1m
0n
0o
#625000000
0!
0L
0W
0b
0m
#630000000
1!
b00111111101010111000100111011011 '
b00111111100101011000000000011100 *
b01000000011000011110000010110000 -
b01000000100001010110001001000001 0
b00000000000000000000000000000000 3
b10111111110101101011011000101101 6
b00111111100101011000000000011100 8
b00111111101010111000100111011011 ;
b01000000100001010110001001000001 >
b01000000011000011110000010110000 A
b10111111110101101011011000101101 D
b00000000000000000000000000000000 G
1J
1L
1M
1N
1O
1P
b00111111100101011000000000011100 R
b00111111101010111000100111011011 V
1W
1X
1Y
b01000000100001010110001001000001 ]
b01000000011000011110000010110000 a
1b
1c
1d
b10111111110101101011011000101101 h
b00000000000000000000000000000000 l
1m
1n
1o
#635000000
0!
0L
0W
0b
0m
#640000000
1!
b00111111100101011000000000011100 '
b01000000000000010111000100100001 *
b01000000100001010110001001000001 -
b01000000100101101011011101110101 0
b11000000001101100101101000110011 6
b01000000000000010111000100100001 8
b00111111100101011000000000011100 ;
b01000000100101101011011101110101 >
b01000000100001010110001001000001 A
b11000000001101100101101000110011 D
0J
1L
0M
0N
0O
0P
b01000000000000010111000100100001 R
b00111111100101011000000000011100 V
1W
0X
0Y
b01000000100101101011011101110101 ]
b01000000100001010110001001000001 a
1b
0c
0d
b11000000001101100101101000110011 h
1m
0n
0o
#645000000
0!
0L
0W
0b
0m
#650000000
1!
b01000000000000010111000100100001 '
b01000000000011111010100001011000 *
b01000000100101101011011101110101 -
b01000000101010010001000011011111 0
b11000000100010101001100000001010 6
b01000000000011111010100001011000 8
b01000000000000010111000100100001 ;
b01000000101010010001000011011111 >
b01000000100101101011011101110101 A
b11000000100010101001100000001010 D
1J
1L
1M
1N
1O
1P
b01000000000011111010100001011000 R
b01000000000000010111000100100001 V
1W
1X
1Y
b01000000101010010001000011011111 ]
b01000000100101101011011101110101 a
1b
1c
1d
b11000000100010101001100000001010 h
1m
1n
1o
#655000000
0!
0L
0W
0b
0m
#660000000
1!
b01000000000011111010100001011000 '
b00111111011000000001111101100011 *
b01000000101010010001000011011111 -
b01000000101000110111111011100100 0
b11000000100101011001101001011110 6
b00111111011000000001111101100011 8
b01000000000011111010100001011000 ;
b01000000101000110111111011100100 >
b01000000101010010001000011011111 A
b11000000100101011001101001011110 D
0J
1L
0M
0N
0O
0P
b00111111011000000001111101100011 R
b01000000000011111010100001011000 V
1W
0X
0Y
b01000000101000110111111011100100 ]
b01000000101010010001000011011111 a
1b
0c
0d
b11000000100101011001101001011110 h
1m
0n
0o
#665000000
0!
0L
0W
0b
0m
#670000000
1!
b00111111011000000001111101100011 '
b10111110100110011001101100110000 *
b01000000101000110111111011100100 -
b01000000100001001010100011001001 0
b11000000010110000001011101100101 6
b10111110100110011001101100110000 8
b00111111011000000001111101100011 ;
b01000000100001001010100011001001 >
b01000000101000110111111011100100 A
b11000000010110000001011101100101 D
1J
1L
1M
1N
1O
1P
b10111110100110011001101100110000 R
b00111111011000000001111101100011 V
1W
1X
1Y
b01000000100001001010100011001001 ]
b01000000101000110111111011100100 a
1b
1c
1d
b11000000010110000001011101100101 h
1m
1n
1o
#675000000
0!
0L
0W
0b
0m
#680000000
1!
b00000000000000000000000000000000 '
b10111111010101010101101100101111 *
b01000000100001001010100011001001 -
b01000000000100100101010100011011 0
b10111111111100110011001000100010 6
b10111111010101010101101100101111 8
b00000000000000000000000000000000 ;
b01000000000100100101010100011011 >
b01000000100001001010100011001001 A
b10111111111100110011001000100010 D
0J
1L
0M
0N
0O
0P
b10111111010101010101101100101111 R
b00000000000000000000000000000000 V
1W
0X
0Y
b01000000000100100101010100011011 ]
b01000000100001001010100011001001 a
1b
0c
0d
b10111111111100110011001000100010 h
1m
0n
0o
#685000000
0!
0L
0W
0b
0m
#690000000
1!
b10111110110000011111011011000100 *
b01000000000100100101010100011011 -
b00111111001100010110000101110110 0
b00111011110100010011011111010010 6
b10111110110000011111011011000100 8
b00111111001100010110000101110110 >
b01000000000100100101010100011011 A
b00111011110100010011011111010010 D
1J
1L
1M
1N
1O
1P
b10111110110000011111011011000100 R
1W
1X
1Y
b00111111001100010110000101110110 ]
b01000000000100100101010100011011 a
1b
1c
1d
b00111011110100010011011111010010 h
1m
1n
1o
#695000000
0!
0L
0W
0b
0m
#700000000
1!
b10111110001000001011011110011000 *
b00111111001100010110000101110110 -
b10111110000000101111111011101001 0
b00111011110100010011011111010010 3
b00111110100110111000011010101011 6
b10111110001000001011011110011000 8
b10111110000000101111111011101001 >
b00111111001100010110000101110110 A
b00111110100110111000011010101011 D
b00111011110100010011011111010010 G
0J
1L
0M
0N
0O
0P
b10111110001000001011011110011000 R
1W
0X
0Y
b10111110000000101111111011101001 ]
b00111111001100010110000101110110 a
1b
0c
0d
b00111110100110111000011010101011 h
b00111011110100010011011111010010 l
1m
0n
0o
#705000000
0!
0L
0W
0b
0m
#710000000
1!
b10111110011111011110011110010000 *
b00000000000000000000000000000000 -
b10111110010111001001100000110110 0
b00111110100110111000011010101011 3
b00111110000110111101011100001101 6
b10111110011111011110011110010000 8
b10111110010111001001100000110110 >
b00000000000000000000000000000000 A
b00111110000110111101011100001101 D
b00111110100110111000011010101011 G
1J
1L
1M
1N
1O
1P
b10111110011111011110011110010000 R
1W
1X
1Y
b10111110010111001001100000110110 ]
b00000000000000000000000000000000 a
1b
1c
1d
b00111110000110111101011100001101 h
b00111110100110111000011010101011 l
1m
1n
1o
#715000000
0!
0L
0W
0b
0m
#720000000
1!
b00111110000110111101011100001101 3
b00111110000110111101011100001101 G
0J
1L
0M
0N
0O
0P
1W
0X
0Y
1b
0c
0d
b00111110000110111101011100001101 l
1m
0n
0o
#725000000
0!
0L
0W
0b
0m
#730000000
1!
1J
1L
1M
1N
1O
1P
1W
1X
1Y
1b
1c
1d
1m
1n
1o
#735000000
0!
0L
0W
0b
0m
#740000000
1!
0J
1L
0M
0N
0O
0P
1W
0X
0Y
1b
0c
0d
1m
0n
0o
#745000000
0!
0L
0W
0b
0m
#750000000
1!
1J
1L
1M
1N
1O
1P
1W
1X
1Y
1b
1c
1d
1m
1n
1o
#755000000
0!
0L
0W
0b
0m
#760000000
1!
0J
1L
0M
0N
0O
0P
1W
0X
0Y
1b
0c
0d
1m
0n
0o
#765000000
0!
0L
0W
0b
0m
#770000000
1!
1J
1L
1M
1N
1O
1P
1W
1X
1Y
1b
1c
1d
1m
1n
1o
#775000000
0!
0L
0W
0b
0m
#780000000
1!
0J
1L
0M
0N
0O
0P
1W
0X
0Y
1b
0c
0d
1m
0n
0o
#785000000
0!
0L
0W
0b
0m
#790000000
1!
1J
1L
1M
1N
1O
1P
1W
1X
1Y
1b
1c
1d
1m
1n
1o
#795000000
0!
0L
0W
0b
0m
#800000000
1!
0J
1L
0M
0N
0O
0P
1W
0X
0Y
1b
0c
0d
1m
0n
0o
#805000000
0!
0L
0W
0b
0m
#810000000
1!
1J
1L
1M
1N
1O
1P
1W
1X
1Y
1b
1c
1d
1m
1n
1o
#815000000
0!
0L
0W
0b
0m
#820000000
1!
0J
1L
0M
0N
0O
0P
1W
0X
0Y
1b
0c
0d
1m
0n
0o
#825000000
0!
0L
0W
0b
0m
#830000000
1!
1J
1L
1M
1N
1O
1P
1W
1X
1Y
1b
1c
1d
1m
1n
1o
#835000000
0!
0L
0W
0b
0m
#840000000
1!
0J
1L
0M
0N
0O
0P
1W
0X
0Y
1b
0c
0d
1m
0n
0o
#845000000
0!
0L
0W
0b
0m
#850000000
1!
b00111101101110001011001101100001 *
b00111111000111101011000001001001 0
b00111111100110101000111011000101 6
b00111101101110001011001101100001 8
b00111111000111101011000001001001 >
b00111111100110101000111011000101 D
1J
1L
1M
1N
1O
1P
b00111101101110001011001101100001 R
1W
1X
1Y
b00111111000111101011000001001001 ]
1b
1c
1d
b00111111100110101000111011000101 h
1m
1n
1o
#855000000
0!
0L
0W
0b
0m
#860000000
1!
b00111101101110001011001101100001 '
b00111111010000101101010011000011 *
b00111111000111101011000001001001 -
b01000000000010110101000001010011 0
b00111111100110101000111011000101 3
b00111101110100101010010001100000 6
b00111111010000101101010011000011 8
b00111101101110001011001101100001 ;
b01000000000010110101000001010011 >
b00111111000111101011000001001001 A
b00111101110100101010010001100000 D
b00111111100110101000111011000101 G
0J
1L
0M
0N
0O
0P
b00111111010000101101010011000011 R
b00111101101110001011001101100001 V
1W
0X
0Y
b01000000000010110101000001010011 ]
b00111111000111101011000001001001 a
1b
0c
0d
b00111101110100101010010001100000 h
b00111111100110101000111011000101 l
1m
0n
0o
#865000000
0!
0L
0W
0b
0m
